{
    "index": {
        "download_fdroid": "F-Droid ডাউনলোউড করুন",
        "gpg_signature": "PGP সিগনেচার",
        "introduction": "F-Droid এমন একটি ক্যাটালগ যেটি অ্যান্ড্রোয়েড প্ল্যাটফর্মের জন্য FOSS (ফ্রি এবং ওপেন সোর্স) অ্যাপ্লিকেশনের একটি অ্যাপস্টোরের মত কাজ করে। এর ক্লায়েন্ট অ্যাপটি আপনার অ্যাপ আপডেটগুলো ব্রাউজ এবং ইন্সটল করতে এবং ট্র্যাক রাখাকে সহজ করে",
        "screenshot": "F-Droid এ্যান্ড্রোয়েড অ্যাপের স্ক্রিনশট",
        "title": "F-Droid কি?"
    },
    "navigation": {
        "about": "সম্পর্কে",
        "browse": "ব্রাউজ",
        "contribute": "অংশগ্রহণ",
        "documentation": "ডকস",
        "forum": "ফোরাম",
        "issues": "ইস্যু",
        "news": "খবরাখবর"
    },
    "package": {
        "anti_features": "খারাপ ফিচারগুলো",
        "anti_features_warning": "এই এ্যাপে কিছু ফিচার আছে যেগুলো আপনার পছন্দ না-ও হতে পারে",
        "author": "লেখক",
        "build_metadata": "বিল্ডের মেটাডাটা",
        "changelog": "পরিবর্তনতালিকা",
        "donate": "অনুদান",
        "download": "[file_extension] ডাউনলোড করুন",
        "flattr": "Flattr",
        "gpg_signature": "PGP সিগনেচার",
        "issue_tracker": "ইস্যু ট্র্যাকার",
        "liberapay": "Liberapay",
        "license": "লাইসেন্স",
        "minimum_android_version": "এই ভার্সনটি চালাতে গেলে এন্ড্রোয়েড [android_version] বা পরের কোন ভার্সন থাকা লাগবে।",
        "new_in_version": "[latest_version] ভার্সনে নতুন যা এসেছে",
        "packages": "প্যাকেজগুলো",
        "permissions": "অনুমতিগুলো",
        "signed_by_developer": "এটা আসল ডেভেলপার নিজে বিল্ড এবং সাইন করেছেন।",
        "signed_by_fdroid": "এটা F-Droid নিজে বিল্ড এবং সাইন করেছে, এবং এর গ্যারান্টি আছে যে এটি <a href=\"[source_code_url]\">এই সোর্স টারবল</a> থেকে তৈরি।",
        "source_code": "সোর্স কোড",
        "suggest_downloading_via_fdroid": "যদিও নিচে APK ডাউনলোডগুলো দেয়া আছে, আপনার এটা জেনে রাখা উচিত যে এগুলো ইন্সটল করলে আপনি আপডেটের কোন নোটিফিকেশন পাবেন না এবং এটা ডাউনলোডের পদ্ধতি হিসেবে কম নিরাপদ। আমরা আপনাকে F-Droid ক্লায়েন্টটি ইন্সটল ও ব্যবহার করার জন্য বলবো।",
        "technical_info": "বিস্তারিত তথ্য",
        "version_info": "<b>[package_version] ভার্সন</b> ([package_version_code]) - যোগ করা হয়েছে [package_added_date] তারিখে",
        "website": "ওয়েবসাইট"
    },
    "sidebars": {
        "donate": {
            "bank_transfer_name": "নাম",
            "bitcoin_alt": "Bitcoin-এর মাধ্যমে অনুদান",
            "flattr_alt": "Flattr-এর মাধ্যমে অনুদান",
            "heading": "অনুদান দিন",
            "hellotux": "👕 টি-শার্ট 👕 দিচ্ছে",
            "hellotux_alt": "HELLOTUX",
            "hellotux_donation": "F-Droid প্রতিটি শার্ট বিক্রির জন্য €৩ পাবে।",
            "liberapay_alt": "Liberapay-এর মাধ্যমে অনুদান",
            "litecoin_alt": "Litecoin-এর মাধ্যমে অনুদান",
            "paypal_alt": "PayPal-এর মাধ্যমে অনুদান",
            "powered_by_donations": "F-Droid আপনাদের অনুদানের মাধ্যমেই চলে!",
            "via_bank_transfer": "ব্যাংক ট্রান্সফার"
        },
        "last_updated": {
            "heading": "শেষ আপডেট করা হয়েছে"
        },
        "latest_packages": {
            "heading": "নতুন এ্যাপগুলো"
        },
        "news": {
            "heading": "খবরাখবর"
        },
        "search": {
            "heading": "এ্যাপ খুঁজে বের করুন",
            "noscript": "এটার জন্য JavaScript চালু করা থাকতে হবে",
            "search": "সার্চ"
        }
    }
}
